traces/registerbank.vcd
$date
    Fri Aug 18 17:23:27 2023
$end
$version
    MyHDL 0.11
$end
$timescale
    1ns
$end

$scope module bench $end
$var reg 1 ! clock $end
$var reg 32 " dataA $end
$var reg 32 # dataB $end
$var reg 32 $ dataW $end
$var reg 5 % readRegA $end
$var reg 5 & readRegB $end
$var reg 1 ' writeEnable $end
$var reg 5 ( writeReg $end
$scope module registerbank0 $end
$var reg 1 ! clk $end
$var reg 32 " readDataA $end
$var reg 32 # readDataB $end
$var reg 5 % readRegA $end
$var reg 5 & readRegB $end
$var reg 32 $ writeData $end
$var reg 1 ' writeEnable $end
$var reg 5 ( writeReg $end
$scope module registers $end
$var reg 32 ) registers(0) $end
$var reg 32 * registers(1) $end
$var reg 32 + registers(2) $end
$var reg 32 , registers(3) $end
$var reg 32 - registers(4) $end
$var reg 32 . registers(5) $end
$var reg 32 / registers(6) $end
$var reg 32 0 registers(7) $end
$var reg 32 1 registers(8) $end
$var reg 32 2 registers(9) $end
$var reg 32 3 registers(10) $end
$var reg 32 4 registers(11) $end
$var reg 32 5 registers(12) $end
$var reg 32 6 registers(13) $end
$var reg 32 7 registers(14) $end
$var reg 32 8 registers(15) $end
$var reg 32 9 registers(16) $end
$var reg 32 : registers(17) $end
$var reg 32 ; registers(18) $end
$var reg 32 < registers(19) $end
$var reg 32 = registers(20) $end
$var reg 32 > registers(21) $end
$var reg 32 ? registers(22) $end
$var reg 32 @ registers(23) $end
$var reg 32 A registers(24) $end
$var reg 32 B registers(25) $end
$var reg 32 C registers(26) $end
$var reg 32 D registers(27) $end
$var reg 32 E registers(28) $end
$var reg 32 F registers(29) $end
$var reg 32 G registers(30) $end
$var reg 32 H registers(31) $end
$upscope $end
$upscope $end
$upscope $end

$enddefinitions $end
$dumpvars
0!
b00000000000000000000000000000000 "
b00000000000000000000000000000000 #
b00000000000000000000000000000000 $
b00000 %
b00000 &
0'
b00000 (
b00000000000000000000000000001010 )
b00000000000000000000000000001011 *
b00000000000000000000000000001100 +
b00000000000000000000000000001101 ,
b00000000000000000000000000001110 -
b00000000000000000000000000001111 .
b00000000000000000000000000010000 /
b00000000000000000000000000010001 0
b00000000000000000000000000010010 1
b00000000000000000000000000010011 2
b00000000000000000000000000010100 3
b00000000000000000000000000010101 4
b00000000000000000000000000010110 5
b00000000000000000000000000010111 6
b00000000000000000000000000011000 7
b00000000000000000000000000011001 8
b00000000000000000000000000011010 9
b00000000000000000000000000011011 :
b00000000000000000000000000011100 ;
b00000000000000000000000000011101 <
b00000000000000000000000000011110 =
b00000000000000000000000000011111 >
b00000000000000000000000000100000 ?
b00000000000000000000000000100001 @
b00000000000000000000000000100010 A
b00000000000000000000000000100011 B
b00000000000000000000000000100100 C
b00000000000000000000000000100101 D
b00000000000000000000000000100110 E
b00000000000000000000000000100111 F
b00000000000000000000000000101000 G
b00000000000000000000000000101001 H
$end
b11111 &
b00000000000000000000000000001010 "
b00000000000000000000000000001010 #
b00000000000000000000000000101001 #
#5
1!
#10
0!
b00001 %
b11110 &
b00000000000000000000000000001011 "
b00000000000000000000000000101000 #
#15
1!
#20
0!
b00010 %
b11101 &
b00000000000000000000000000001100 "
b00000000000000000000000000100111 #
#25
1!
#30
0!
b00011 %
b11100 &
b00000000000000000000000000001101 "
b00000000000000000000000000100110 #
#35
1!
#40
0!
b00100 %
b11011 &
b00000000000000000000000000001110 "
b00000000000000000000000000100101 #
#45
1!
#50
0!
b00101 %
b11010 &
b00000000000000000000000000001111 "
b00000000000000000000000000100100 #
#55
1!
#60
0!
b00110 %
b11001 &
b00000000000000000000000000010000 "
b00000000000000000000000000100011 #
#65
1!
#70
0!
b00111 %
b11000 &
b00000000000000000000000000010001 "
b00000000000000000000000000100010 #
#75
1!
#80
0!
b01000 %
b10111 &
b00000000000000000000000000010010 "
b00000000000000000000000000100001 #
#85
1!
#90
0!
b01001 %
b10110 &
b00000000000000000000000000010011 "
b00000000000000000000000000100000 #
#95
1!
#100
0!
b01010 %
b10101 &
b00000000000000000000000000010100 "
b00000000000000000000000000011111 #
#105
1!
#110
0!
b01011 %
b10100 &
b00000000000000000000000000010101 "
b00000000000000000000000000011110 #
#115
1!
#120
0!
b01100 %
b10011 &
b00000000000000000000000000010110 "
b00000000000000000000000000011101 #
#125
1!
#130
0!
b01101 %
b10010 &
b00000000000000000000000000010111 "
b00000000000000000000000000011100 #
#135
1!
#140
0!
b01110 %
b10001 &
b00000000000000000000000000011000 "
b00000000000000000000000000011011 #
#145
1!
#150
0!
b01111 %
b10000 &
b00000000000000000000000000011001 "
b00000000000000000000000000011010 #
#155
1!
#160
0!
b10000 %
b01111 &
b00000000000000000000000000011010 "
b00000000000000000000000000011001 #
#165
1!
#170
0!
b10001 %
b01110 &
b00000000000000000000000000011011 "
b00000000000000000000000000011000 #
#175
1!
#180
0!
b10010 %
b01101 &
b00000000000000000000000000011100 "
b00000000000000000000000000010111 #
#185
1!
#190
0!
b10011 %
b01100 &
b00000000000000000000000000011101 "
b00000000000000000000000000010110 #
#195
1!
#200
0!
b10100 %
b01011 &
b00000000000000000000000000011110 "
b00000000000000000000000000010101 #
#205
1!
#210
0!
b10101 %
b01010 &
b00000000000000000000000000011111 "
b00000000000000000000000000010100 #
#215
1!
#220
0!
b10110 %
b01001 &
b00000000000000000000000000100000 "
b00000000000000000000000000010011 #
#225
1!
#230
0!
b10111 %
b01000 &
b00000000000000000000000000100001 "
b00000000000000000000000000010010 #
#235
1!
#240
0!
b11000 %
b00111 &
b00000000000000000000000000100010 "
b00000000000000000000000000010001 #
#245
1!
#250
0!
b11001 %
b00110 &
b00000000000000000000000000100011 "
b00000000000000000000000000010000 #
#255
1!
#260
0!
b11010 %
b00101 &
b00000000000000000000000000100100 "
b00000000000000000000000000001111 #
#265
1!
#270
0!
b11011 %
b00100 &
b00000000000000000000000000100101 "
b00000000000000000000000000001110 #
#275
1!
#280
0!
b11100 %
b00011 &
b00000000000000000000000000100110 "
b00000000000000000000000000001101 #
#285
1!
#290
0!
b11101 %
b00010 &
b00000000000000000000000000100111 "
b00000000000000000000000000001100 #
#295
1!
#300
0!
b11110 %
b00001 &
b00000000000000000000000000101000 "
b00000000000000000000000000001011 #
#305
1!
#310
0!
b11111 %
b00000 &
b00000000000000000000000000101001 "
b00000000000000000000000000001010 #
#315
1!
#320
0!
1'
b01010 (
b00000000000000000000000001100100 $
b01010 %
b00000000000000000000000000010100 "
#325
1!
b00000000000000000000000001100100 3
b00000000000000000000000001100100 "
